…
Explore the mean (and max) minutes of non-wear time by day. Numbers on the first day may be influenced by low wear time (e.g., very high sedentary time, low light, low sleep, etc.). Mean non-wear time is an order of magnitude higher on the first day vs. the second highest day (towards the end of the study/during the post-intervention period). As a resul, will also deleted the first day of data

```r
  nonWear<-dailyForPlots %>% select(date,nonWearMinutes) %>% group_by(date) %>% arrange(date) %>%
                             mutate(meanNonWear=mean(nonWearMinutes),
                                    maxNonWear=max(nonWearMinutes)) %>% 
                             select(-nonWearMinutes) %>% distinct() %>% arrange(desc(meanNonWear))
  nonWear
```

```
## # A tibble: 56 × 3
## # Groups:   date [56]
##    date       meanNonWear maxNonWear
##    <date>           <dbl>      <int>
##  1 2021-10-18       659.         716
##  2 2021-12-12        62.7        575
##  3 2021-12-11        56.8        629
##  4 2021-10-31        43.0        478
##  5 2021-12-08        41.4        742
##  6 2021-11-09        38.4        567
##  7 2021-12-10        37.9        275
##  8 2021-10-22        37.6        785
##  9 2021-11-05        35.2        839
## 10 2021-12-06        34.9        550
## # … with 46 more rows
```
…
